module github.com/AnZengHui/tcptransport

go 1.12

require (
	github.com/coreos/bbolt v1.3.3 // indirect
	github.com/coreos/etcd v3.3.13+incompatible
	github.com/coreos/go-semver v0.3.0 // indirect
	github.com/coreos/go-systemd v0.0.0-20190719114852-fd7a80b32e1f // indirect
	github.com/coreos/pkg v0.0.0-20180928190104-399ea9e2e55f // indirect
	github.com/dgrijalva/jwt-go v3.2.0+incompatible // indirect
	github.com/gogo/protobuf v1.2.1 // indirect
	github.com/golang/groupcache v0.0.0-20190702054246-869f871628b6 // indirect
	github.com/golang/protobuf v1.3.2
	github.com/google/btree v1.0.0 // indirect
	github.com/gorilla/websocket v1.4.0 // indirect
	github.com/grpc-ecosystem/go-grpc-middleware v1.0.0 // indirect
	github.com/grpc-ecosystem/go-grpc-prometheus v1.2.0 // indirect
	github.com/grpc-ecosystem/grpc-gateway v1.9.5 // indirect
	github.com/jonboulle/clockwork v0.1.0 // indirect
	github.com/logrusorgru/aurora v0.0.0-20190803045625-94edacc10f9b
	github.com/modern-go/concurrent v0.0.0-20180306012644-bacd9c7ef1dd // indirect
	github.com/modern-go/reflect2 v1.0.1 // indirect
	github.com/prometheus/client_golang v1.1.0 // indirect
	github.com/soheilhy/cmux v0.1.4 // indirect
	github.com/tmc/grpc-websocket-proxy v0.0.0-20190109142713-0ad062ec5ee5 // indirect
	github.com/xiang90/probing v0.0.0-20190116061207-43a291ad63a2 // indirect
	go.etcd.io/bbolt v1.3.3 // indirect
	go.uber.org/atomic v1.4.0 // indirect
	go.uber.org/multierr v1.1.0 // indirect
	go.uber.org/zap v1.10.0 // indirect
	golang.org/x/net v0.0.0-20190628185345-da137c7871d7 // indirect
	golang.org/x/time v0.0.0-20190308202827-9d24e82272b4 // indirect
	google.golang.org/grpc v1.22.0
)
